<svg width="56" height="56" viewBox="0 0 56 56" fill="none" xmlns="http://www.w3.org/2000/svg">
<path d="M9.2749 13.9417H46.6082" stroke="white" stroke-width="4" stroke-linecap="round" stroke-linejoin="round"/>
<path d="M9.2749 27.9417H46.6082" stroke="white" stroke-width="4" stroke-linecap="round" stroke-linejoin="round"/>
<path d="M9.2749 41.9417H46.6082" stroke="white" stroke-width="4" stroke-linecap="round" stroke-linejoin="round"/>
</svg>
